# vertices for sign plate
v -3 50 -20
v -3 50 20
v -3 52 20
v -3 52 -20
v -3 32 -20
v -3 32 20
v -3 34 20
v -3 34 -20
v -3 34 -18
v -3 50 -18
v -3 34 18
v -3 50 18
# back side for doublesided sign
v 3 50 20
v 3 50 -20
v 3 52 -20
v 3 52 20
v 3 32 20
v 3 32 -20
v 3 34 -20
v 3 34 20
v 3 34 18
v 3 50 18
v 3 34 -18
v 3 50 -18


# texcoords for sign plate (sign plate now added to main texture JPG)
# Three areas, metal, red (warning), brown (info), white (border).
vt 0.875 0.96875 0
vt 0.90625 0.96875 0
vt 0.90625 1 0
vt 0.875 1 0
vt 0.9375 0.96875 0
vt 0.9375 1 0
vt 0.96875 0.96875 0
vt 0.96875 1 0
vt 1 0.96875 0
vt 1 1 0

# indices for triangles. (actually quads)
#f vidx/tidx/nidx
# borders
# top
f 1/7/0 2/9/0 3/10/0 4/8/0

# bottom
f 5/7/0 6/9/0 7/10/0 8/8/0

# left
f 8/7/0 9/9/0 10/10/0 1/8/0

# right
f 11/7/0 7/9/0 2/10/0 12/8/0

# main sign area
f 9/2/0 11/5/0 12/6/0 10/3/0

# top edge
f 4/1/0 3/2/0 16/3/0 15/4/0

# bottom edge
f 5/1/0 6/2/0 17/3/0 18/4/0

# left edge
f 18/1/0 5/2/0 4/3/0 15/4/0

# right edge
f 6/1/0 17/2/0 16/3/0 3/4/0

# back - same as front on doublesided version
# top
f 13/7/0 14/9/0 15/10/0 16/8/0

# bottom
f 17/7/0 18/9/0 19/10/0 20/8/0

# left
f 20/7/0 21/9/0 22/10/0 13/8/0

# right
f 23/7/0 19/9/0 14/10/0 24/8/0

# main sign area
f 21/2/0 23/5/0 24/6/0 22/3/0